﻿Quiz Question Set,Quiz Question
a03S0000007u65cIAA,a01S000000OYuCs
a03S0000007u65cIAA,a01S000000OYuCt
a03S0000007u65cIAA,a01S000000OYuCu
a03S0000007u65cIAA,a01S000000OYuCv
a03S0000007u65cIAA,a01S000000OYuCw
a03S0000007u65cIAA,a01S000000OYuCx
a03S0000007u65cIAA,a01S000000OYuCy
a03S0000007u65cIAA,a01S000000OYuCz
a03S0000007u65cIAA,a01S000000OYuD0
a03S0000007u65cIAA,a01S000000OYuD1
a03S0000007u65cIAA,a01S000000OYuD2
a03S0000007u65cIAA,a01S000000OYuD3
a03S0000007u65cIAA,a01S000000OYuD4
a03S0000007u65cIAA,a01S000000OYuD5
a03S0000007u65cIAA,a01S000000OYuD6
